{
  "type": "service_account",
  "project_id": "clone-53d6d",
  "private_key_id": "36a28c58cb85574c0d9bdf398f09c0875d97bc2d",
  "private_key": "-----BEGIN PRIVATE KEY-----\nMIIEvgIBADANBgkqhkiG9w0BAQEFAASCBKgwggSkAgEAAoIBAQDJhpDiKU+yPrlr\nRIb7i070Snp+2pO/TlpUpAZHt+Qs+gKakf4pD8bu6jduv/fQfyxHDNzedyHRNejT\n3MtV2uraMsF4Ni7qUNIIc9urZ1HAF66sVcEc1isGS5dv2h1qbZRc27EoajYK/IAB\nrCKwfPHrSHGJZ4FB+xwBEhG8ufVz+wCec24FFrL0jVKrOA4nqYkRF4ybXp+6DX43\nr7g5oWD18W/5cbAxhil0JrK0Dfr3RGuKtp3j6P6wccBM7/yzF420M+50LsRHKj+o\nQF1JcHjdRlqDcDFVeFsKAAUmVAUEAMGJroGwl6A+HS2OAocTEZGqHxZlYi2zrduc\n/ib5HELdAgMBAAECggEAAQRz+4U0CcU/PY9eCMEfpw7MMz2xiBeiT9V4C2zsfY9O\nHY9gn/ecZU0bPV6XPCnQpIyg/dP5Ffu4VGMK491SQ7U9nL+5gEyAUoGoV7in80AQ\nsNNtrAQ8clB+xV1fcwig+oklERGVT/xGhNSIDxRtg3T9Mtwi4oDOrRSYsH6H9HLn\nkmO4ju75qT0JAvg3eTMG7z2k68mM6hHyZgm2WkLFaJs5ttfkcfBu0MmXPnOS6fFa\n0WEer9qXZ43ol94+iBrqu047/KCebbK7S41f0M8V8DBPeHCLj1BqFB2EhkHSCJcS\nE7CqWHZcgV7p1Ag1SiFLWybjO2NgeLqHS6M4vkhE0QKBgQDyIDvWfitBd2ypSWru\nVJirkGPrHbrgX4yQCLhWtfLDEuFm2WscYmsKsd/hWpDkZ/oEwALmGvCjTDxsDoD0\nOfRkmj+KWZ5iw524Na21WOLAZvWZyLeVulN86AUOT7Qpq6xfoncBQ0PZBXRCKhwI\nJvMUmej6yT9nIcM+vq5OdILqEQKBgQDVEsNrxvwtbYs+frRNIbUYW4XVYl2s8s0U\n99ZuaMjxdaWXjBg8dsH8b7siNy09RtiA1PAPquxABp+EmnZgCy1jbrSRWHIebRgW\nLRWxJbILpESYACbuNDw6NMbHeH+xluD81gdPER0gLBBAx7S6SBCHa+H9OH9NjHqN\nb+P1W7BgDQKBgQDDYDVIwGiBHC/nbmHFzSegkRO/fi70rMVM2Gx/M7SfqpWNm3Vt\n4xDDAYNJYf43AJvjx1jPev+glXzQKOfvqvBFWZ5aMjS3N2gGY/I2unHGlY4rOKbD\nQCXsTYD+6lvToD6osP1cXH3cGiWU2kviXCOcBRHVhB0QSFM3R0B5+FRHMQKBgClG\n8US3z7KdPhRlR1iJ5yNI16x22d7fSot9V7Ub55GfUO0C3s8X0oysuHvwZHsydk6+\n8aKXYh0lK1Hs+nGwuKJCmAhwMetjBv+EzGb8/njy4bbwkJok1GYSQ0/xMAufRwa0\nD8ZpclMBNkTWa1SLEWiqpaUAhOjpBfTQcEDf+lMhAoGBANZ8T2nGDRvfhkHFlVB6\nK5yqNapgWTm6ikQlO9tz//j12/tk4hoGV0fy/tUeTioB7ntz2t5aBr4n1FJ60AWg\n2dAf0yGdKn7RmyLY7GnKdRsshalKQD79/BOmmWeKhP5mh3OJFtduSJrgHSSXiF07\n5DWFWGdw2v7dVUbV3IRCKM7l\n-----END PRIVATE KEY-----\n",
  "client_email": "firebase-adminsdk-txqf1@clone-53d6d.iam.gserviceaccount.com",
  "client_id": "117091561665538155732",
  "auth_uri": "https://accounts.google.com/o/oauth2/auth",
  "token_uri": "https://oauth2.googleapis.com/token",
  "auth_provider_x509_cert_url": "https://www.googleapis.com/oauth2/v1/certs",
  "client_x509_cert_url": "https://www.googleapis.com/robot/v1/metadata/x509/firebase-adminsdk-txqf1%40clone-53d6d.iam.gserviceaccount.com"
}
